{
  "files": {
    "main.css": "/static/css/main.64be272c.chunk.css",
    "main.js": "/static/js/main.c42cdf1d.chunk.js",
    "main.js.map": "/static/js/main.c42cdf1d.chunk.js.map",
    "runtime-main.js": "/static/js/runtime-main.f64c1f8d.js",
    "runtime-main.js.map": "/static/js/runtime-main.f64c1f8d.js.map",
    "static/css/2.0010417d.chunk.css": "/static/css/2.0010417d.chunk.css",
    "static/js/2.e90ebba6.chunk.js": "/static/js/2.e90ebba6.chunk.js",
    "static/js/2.e90ebba6.chunk.js.map": "/static/js/2.e90ebba6.chunk.js.map",
    "index.html": "/index.html",
    "precache-manifest.698df83e42ef9267ac33a3b28e3a49e0.js": "/precache-manifest.698df83e42ef9267ac33a3b28e3a49e0.js",
    "service-worker.js": "/service-worker.js",
    "static/css/2.0010417d.chunk.css.map": "/static/css/2.0010417d.chunk.css.map",
    "static/css/main.64be272c.chunk.css.map": "/static/css/main.64be272c.chunk.css.map",
    "static/js/2.e90ebba6.chunk.js.LICENSE": "/static/js/2.e90ebba6.chunk.js.LICENSE",
    "static/media/login_bg_all.png": "/static/media/login_bg_all.14b8fa02.png",
    "static/media/logo-jonas-light.png": "/static/media/logo-jonas-light.56dd1209.png"
  },
  "entrypoints": [
    "static/js/runtime-main.f64c1f8d.js",
    "static/css/2.0010417d.chunk.css",
    "static/js/2.e90ebba6.chunk.js",
    "static/css/main.64be272c.chunk.css",
    "static/js/main.c42cdf1d.chunk.js"
  ]
}